                                                               precision    recall  f1-score   support

                                                       Others       0.84      1.00      0.91   2730139
                    business?acquisitions-mergers?acquisition       0.82      0.86      0.84    102487
                business?acquisitions-mergers?acquisition-bid       0.82      0.91      0.86     28422
         business?acquisitions-mergers?acquisition-regulation       0.85      0.75      0.79      1872
                         business?acquisitions-mergers?merger       0.97      0.73      0.84     16065
              business?acquisitions-mergers?merger-regulation       0.38      0.74      0.50       780
                          business?acquisitions-mergers?stake       0.77      0.90      0.83     42762
               business?acquisitions-mergers?unit-acquisition       0.56      0.68      0.62     45022
              business?analyst-ratings?analyst-ratings-change       0.95      0.99      0.97    136531
             business?analyst-ratings?analyst-ratings-history       0.99      0.91      0.95       770
                 business?analyst-ratings?analyst-ratings-set       1.00      0.97      0.98     32447
                                        business?assets?asset       0.97      0.80      0.88     37068
                             business?assets?commodity-assets       0.95      0.54      0.68      1991
                             business?assets?company-for-sale       0.98      0.56      0.72      2598
                                     business?assets?facility       0.92      0.79      0.85     51818
                          business?assets?headquarters-change       0.86      0.96      0.91      1058
                                       business?assets?patent       0.99      0.81      0.89      5507
                                business?assets?unit-for-sale       0.34      0.66      0.45      1158
                               business?bankruptcy?bankruptcy       0.99      0.87      0.92      6285
                          business?bankruptcy?bankruptcy-unit       0.90      0.73      0.81       269
                 business?credit-ratings?credit-rating-change       0.96      0.80      0.87     29929
                business?credit-ratings?credit-rating-outlook       0.93      0.75      0.83      3743
                  business?credit-ratings?credit-rating-watch       0.98      0.81      0.89      1669
                             business?credit?credit-extension       0.87      0.84      0.86      4253
                                         business?credit?debt       0.84      0.79      0.81      7280
                           business?credit?debt-restructuring       0.94      0.59      0.72       571
                                         business?credit?loan       0.78      0.82      0.80      1562
                             business?credit?note-acquisition       0.91      0.54      0.68       767
                                    business?credit?note-sale       0.98      0.73      0.84     16504
                           business?credit?shelf-registration       0.99      0.98      0.99      1164
                                  business?dividends?dividend       0.99      0.90      0.94    104426
                         business?dividends?dividend-guidance       0.83      0.78      0.80      4538
                                   business?earnings?earnings       0.97      0.86      0.91    546717
                          business?earnings?earnings-estimate       0.54      0.91      0.68      7807
                      business?earnings?earnings-expectations       0.99      0.87      0.92     95546
                          business?earnings?earnings-guidance       0.95      0.77      0.85     68737
             business?earnings?earnings-guidance-expectations       0.92      0.95      0.94      7132
                         business?earnings?earnings-per-share       0.99      0.96      0.97    215194
                business?earnings?earnings-per-share-estimate       0.96      0.99      0.98     15037
            business?earnings?earnings-per-share-expectations       0.99      0.99      0.99    101502
                business?earnings?earnings-per-share-guidance       0.97      0.97      0.97     32617
   business?earnings?earnings-per-share-guidance-expectations       0.99      0.99      0.99     14665
                          business?earnings?earnings-revision       0.84      0.86      0.85      1141
                                       business?earnings?ebit       1.00      1.00      1.00     47513
                          business?earnings?ebit-expectations       1.00      1.00      1.00     44331
                              business?earnings?ebit-guidance       1.00      1.00      1.00      9462
                 business?earnings?ebit-guidance-expectations       1.00      1.00      1.00      5068
                                      business?earnings?ebita       1.00      0.99      1.00      1488
                         business?earnings?ebita-expectations       1.00      1.00      1.00      1366
                                     business?earnings?ebitda       1.00      0.99      0.99     44705
                        business?earnings?ebitda-expectations       1.00      1.00      1.00     34949
                            business?earnings?ebitda-guidance       0.96      0.95      0.96      2772
               business?earnings?ebitda-guidance-expectations       0.99      0.99      0.99      2092
                            business?earnings?interest-income       0.99      0.99      0.99      6359
                         business?earnings?operating-earnings       0.91      0.97      0.94     19986
                business?earnings?operating-earnings-guidance       0.90      0.83      0.86      1429
                            business?earnings?pretax-earnings       0.96      0.99      0.98     56328
               business?earnings?pretax-earnings-expectations       1.00      1.00      1.00     47246
                   business?earnings?pretax-earnings-guidance       0.99      1.00      0.99     12935
      business?earnings?pretax-earnings-guidance-expectations       1.00      1.00      1.00      3837
                             business?equity-actions?buybacks       0.99      0.81      0.89     21439
                                business?equity-actions?capex       0.99      0.98      0.99     18177
                       business?equity-actions?capex-guidance       0.97      0.96      0.96      4341
                     business?equity-actions?capital-increase       0.96      0.68      0.80      4474
                             business?equity-actions?expenses       0.97      0.85      0.91     25425
                    business?equity-actions?expenses-guidance       0.95      0.86      0.90      6140
                          business?equity-actions?fundraising       0.96      0.68      0.79     11042
                        business?equity-actions?going-private       0.99      0.86      0.92       656
              business?equity-actions?initial-public-offering       0.97      0.59      0.73      8614
        business?equity-actions?initial-public-offering-price       0.96      0.83      0.89      2711
         business?equity-actions?initial-public-offering-unit       0.42      0.64      0.51       317
                           business?equity-actions?investment       0.93      0.63      0.75     21505
                          business?equity-actions?name-change       0.99      0.93      0.96      2062
                            business?equity-actions?ownership       0.91      0.96      0.93     68755
                    business?equity-actions?private-placement       0.97      0.96      0.96      4569
                      business?equity-actions?public-offering       0.93      0.69      0.79     12857
                       business?equity-actions?reorganization       0.88      0.90      0.89     10399
                  business?equity-actions?reorganization-unit       0.79      0.28      0.41      1072
                 business?equity-actions?reverse-stock-splits       0.98      0.66      0.79       791
                         business?equity-actions?rights-issue       0.98      0.97      0.97      3081
                              business?equity-actions?savings       0.98      0.94      0.96       884
                     business?equity-actions?savings-guidance       0.93      0.81      0.87       445
              business?equity-actions?shareholder-rights-plan       1.00      0.91      0.95       596
                   business?equity-actions?shelf-registration       0.96      0.97      0.97       696
                             business?equity-actions?spin-off       0.98      0.88      0.93      5281
                         business?equity-actions?stock-splits       0.80      0.74      0.77       794
                              business?equity-actions?trading       0.99      0.92      0.96     16072
                                business?exploration?drilling       0.98      0.95      0.96      8870
                      business?exploration?resource-discovery       0.91      0.92      0.92      1663
                               business?indexes?index-listing       0.91      0.75      0.82      1704
              business?industrial-accidents?aircraft-accident       0.79      0.84      0.82       690
              business?industrial-accidents?facility-accident       0.92      0.39      0.55       651
                  business?industrial-accidents?force-majeure       1.00      1.00      1.00       299
      business?industrial-accidents?public-transport-accident       0.95      0.75      0.83       186
                         business?insider-trading?insider-buy       0.98      0.97      0.98     40155
                        business?insider-trading?insider-gift       1.00      0.99      1.00      3564
                        business?insider-trading?insider-sell       0.98      0.92      0.95     50078
                   business?insider-trading?insider-surrender       1.00      1.00      1.00     18974
                   business?insider-trading?sell-registration       1.00      0.96      0.98     36826
                    business?investor-relations?board-meeting       0.98      0.64      0.77      1188
                  business?investor-relations?conference-call       0.98      0.92      0.95     87665
    business?investor-relations?major-shareholders-disclosure       1.00      1.00      1.00     20509
             business?investor-relations?shareholders-meeting       0.97      0.87      0.92      9676
               business?labor-issues?board-member-appointment       0.94      0.24      0.38     16396
               business?labor-issues?board-member-resignation       0.84      0.67      0.75      5825
                business?labor-issues?board-member-retirement       0.56      0.73      0.64       851
                  business?labor-issues?executive-appointment       0.84      0.95      0.89     79738
                 business?labor-issues?executive-compensation       0.97      0.44      0.61      1703
                        business?labor-issues?executive-death       0.98      0.72      0.83      1011
                       business?labor-issues?executive-firing       0.92      0.85      0.88      2291
                       business?labor-issues?executive-health       0.83      0.66      0.73       249
                   business?labor-issues?executive-incentives       0.87      0.86      0.87       381
                  business?labor-issues?executive-resignation       0.89      0.89      0.89     33206
                   business?labor-issues?executive-retirement       0.69      0.51      0.59      4171
                       business?labor-issues?executive-salary       0.97      0.84      0.90      3642
                      business?labor-issues?executive-scandal       0.92      0.77      0.84       515
                       business?labor-issues?executive-search       0.82      0.77      0.80       240
                                business?labor-issues?hirings       0.95      0.65      0.77      6679
                                business?labor-issues?layoffs       0.98      0.84      0.90     21371
                             business?labor-issues?union-pact       0.88      0.47      0.61       483
                         business?labor-issues?workers-strike       0.96      0.57      0.72      2459
                       business?labor-issues?workforce-salary       0.88      0.55      0.67       475
                               business?marketing?campaign-ad       0.93      0.59      0.72      3772
                                business?marketing?conference       0.97      0.94      0.96     19502
                          business?marketing?press-conference       0.93      0.86      0.89       672
                            business?order-imbalances?buy-moc       1.00      0.27      0.43     21658
                            business?order-imbalances?buy-moo       1.00      0.94      0.97      1479
                    business?order-imbalances?delay-imbalance       1.00      0.85      0.92       362
                           business?order-imbalances?sell-moc       1.00      1.00      1.00     18225
                           business?order-imbalances?sell-moo       1.00      1.00      1.00      1758
                          business?partnerships?joint-venture       0.98      0.83      0.90      8476
                            business?partnerships?partnership       0.96      0.88      0.92     66693
                          business?price-targets?price-target       0.93      0.99      0.96     53294
                             business?products-services?award       0.98      0.77      0.86     14193
              business?products-services?business-combination       0.94      0.75      0.83      1351
                 business?products-services?business-contract       0.88      0.86      0.87    108029
                   business?products-services?clinical-trials       0.99      0.93      0.96     15571
business?products-services?clinical-trials-patient-enrollment       0.96      0.93      0.95      1352
                       business?products-services?competition       0.99      0.94      0.96      1094
                            business?products-services?demand       0.84      0.66      0.74      3327
                   business?products-services?demand-guidance       0.87      0.81      0.84      1027
            business?products-services?fast-track-designation       1.00      0.98      0.99       258
               business?products-services?government-contract       0.75      0.45      0.56      6640
                             business?products-services?grant       0.59      0.80      0.68       407
                      business?products-services?market-entry       0.79      0.74      0.76      6081
                       business?products-services?market-exit       0.85      0.65      0.74      1316
                   business?products-services?market-guidance       0.82      0.87      0.84       562
                      business?products-services?market-share       0.91      0.78      0.84      6132
           business?products-services?orphan-drug-designation       0.99      0.99      0.99       629
               business?products-services?product-development       0.96      0.64      0.77     18536
              business?products-services?product-discontinued       0.82      0.56      0.66      4023
               business?products-services?product-enhancement       0.91      0.66      0.76     24064
                    business?products-services?product-outage       0.89      0.45      0.60      1998
                   business?products-services?product-pricing       0.96      0.59      0.73     12524
                 business?products-services?product-promotion       0.84      0.53      0.65       296
                    business?products-services?product-recall       0.96      0.86      0.91      7321
                   business?products-services?product-release       0.95      0.82      0.88    110111
                   business?products-services?product-resumed       0.92      0.56      0.69       839
                    business?products-services?product-review       0.77      0.63      0.69      8463
                 business?products-services?project-abandoned       0.54      0.34      0.42       233
    business?products-services?regulatory-product-application       0.71      0.92      0.80       776
       business?products-services?regulatory-product-approval       0.92      0.92      0.92      5270
                            business?products-services?supply       0.93      0.72      0.81     15963
                   business?products-services?supply-guidance       0.89      0.76      0.82      5319
                      business?regulatory?auditor-appointment       1.00      0.30      0.46       440
                   business?regulatory?exchange-noncompliance       0.99      0.98      0.98       268
                 business?regulatory?regulatory-investigation       0.80      0.87      0.83      5289
                   business?regulatory?regulatory-stress-test       1.00      0.87      0.93       354
                           business?revenues?operating-margin       0.99      0.94      0.96      2209
                  business?revenues?operating-margin-guidance       0.94      0.92      0.93       363
                                    business?revenues?revenue       0.98      0.91      0.94    373505
                           business?revenues?revenue-estimate       0.87      0.75      0.80      1357
                           business?revenues?revenue-guidance       0.95      0.93      0.94     69920
                             business?revenues?revenue-volume       0.66      0.64      0.65     22549
                           business?revenues?same-store-sales       0.92      0.88      0.90     11257
                  business?revenues?same-store-sales-guidance       0.83      0.87      0.85      1715
                              business?stock-picks?stock-pick       0.84      0.66      0.74      4033
                            business?stock-prices?stock-price       0.99      0.71      0.83    679079
          business?technical-analysis?relative-strength-index       1.00      0.83      0.91      9021
            business?technical-analysis?technical-price-level       0.81      0.87      0.84     21619
                   business?technical-analysis?technical-view       1.00      0.14      0.25     76630
                                 society?civil-unrest?protest       0.91      0.61      0.73       436
                    society?corporate-responsibility?donation       0.95      0.80      0.87      2778
                 society?corporate-responsibility?sponsorship       0.91      0.54      0.68       252
                                        society?crime?robbery       0.96      0.38      0.55       260
                                       society?crime?shooting       0.94      0.62      0.75       531
                        society?legal?antitrust-investigation       0.64      0.70      0.67       208
                                 society?legal?antitrust-suit       0.70      0.89      0.78       338
                                 society?legal?discrimination       0.83      0.70      0.76       265
                                          society?legal?fraud       0.93      0.77      0.84       643
                                   society?legal?legal-issues       0.95      0.94      0.94     23981
                            society?legal?patent-infringement       0.92      0.73      0.81      1556
                                      society?legal?sanctions       0.87      0.80      0.84      7916
                                     society?legal?settlement       0.92      0.78      0.84     10143
                                        society?legal?verdict       0.91      0.64      0.75      4119
                               society?security?cyber-attacks       0.97      0.72      0.83      1879
                                   society?security?explosion       0.54      0.67      0.60       432
                     society?transportation?emergency-landing       1.00      0.88      0.93       313
             society?transportation?transportation-disruption       0.82      0.77      0.79      1655
                                 society?war-conflict?bombing       0.89      0.71      0.79       225
                                 society?war-conflict?embargo       0.78      0.76      0.77       343

                                                     accuracy                           0.90   7504472
                                                    macro avg       0.91      0.80      0.84   7504472
                                                 weighted avg       0.91      0.90      0.89   7504472
