                                                               precision    recall  f1-score   support

                                                       Others       0.99      1.00      0.99    271632
                    business?acquisitions-mergers?acquisition       0.89      0.93      0.91     10249
                business?acquisitions-mergers?acquisition-bid       0.88      0.90      0.89      2842
         business?acquisitions-mergers?acquisition-regulation       0.93      0.72      0.81       187
                         business?acquisitions-mergers?merger       0.94      0.96      0.95      1607
              business?acquisitions-mergers?merger-regulation       0.82      0.51      0.63        78
                          business?acquisitions-mergers?stake       0.89      0.95      0.92      4277
               business?acquisitions-mergers?unit-acquisition       0.92      0.77      0.84      4502
              business?analyst-ratings?analyst-ratings-change       0.99      0.99      0.99     13653
             business?analyst-ratings?analyst-ratings-history       0.95      0.96      0.95        77
                 business?analyst-ratings?analyst-ratings-set       1.00      0.99      0.99      3245
                                        business?assets?asset       0.96      0.96      0.96      3707
                             business?assets?commodity-assets       0.93      0.91      0.92       199
                             business?assets?company-for-sale       0.97      0.97      0.97       260
                                     business?assets?facility       0.94      0.94      0.94      5182
                          business?assets?headquarters-change       0.96      0.75      0.85       106
                                       business?assets?patent       0.99      1.00      1.00       550
                                business?assets?unit-for-sale       0.78      0.76      0.77       116
                               business?bankruptcy?bankruptcy       0.98      0.97      0.98       629
                          business?bankruptcy?bankruptcy-unit       0.90      0.70      0.79        27
                 business?credit-ratings?credit-rating-change       0.97      0.98      0.98      2993
                business?credit-ratings?credit-rating-outlook       0.95      0.99      0.97       374
                  business?credit-ratings?credit-rating-watch       0.96      0.97      0.97       167
                             business?credit?credit-extension       0.95      0.90      0.92       425
                                         business?credit?debt       0.94      0.90      0.92       728
                           business?credit?debt-restructuring       0.90      0.96      0.93        57
                                         business?credit?loan       0.89      0.76      0.82       156
                             business?credit?note-acquisition       0.85      0.83      0.84        76
                                    business?credit?note-sale       0.97      0.97      0.97      1651
                           business?credit?shelf-registration       1.00      0.97      0.98       116
                                  business?dividends?dividend       0.98      0.99      0.99     10443
                         business?dividends?dividend-guidance       0.93      0.83      0.88       453
                                   business?earnings?earnings       0.99      0.99      0.99     54672
                          business?earnings?earnings-estimate       0.95      0.96      0.95       781
                      business?earnings?earnings-expectations       0.99      0.99      0.99      9555
                          business?earnings?earnings-guidance       0.98      0.96      0.97      6874
             business?earnings?earnings-guidance-expectations       0.91      0.94      0.93       714
                         business?earnings?earnings-per-share       0.99      0.99      0.99     21520
                business?earnings?earnings-per-share-estimate       0.99      0.98      0.99      1504
            business?earnings?earnings-per-share-expectations       1.00      1.00      1.00     10150
                business?earnings?earnings-per-share-guidance       0.98      0.99      0.99      3262
   business?earnings?earnings-per-share-guidance-expectations       0.98      0.99      0.99      1467
                          business?earnings?earnings-revision       0.95      0.97      0.96       114
                                       business?earnings?ebit       1.00      1.00      1.00      4752
                          business?earnings?ebit-expectations       1.00      1.00      1.00      4433
                              business?earnings?ebit-guidance       0.99      1.00      1.00       946
                 business?earnings?ebit-guidance-expectations       1.00      0.99      1.00       507
                                      business?earnings?ebita       0.99      1.00      1.00       149
                         business?earnings?ebita-expectations       1.00      1.00      1.00       136
                                     business?earnings?ebitda       1.00      1.00      1.00      4471
                        business?earnings?ebitda-expectations       1.00      1.00      1.00      3495
                            business?earnings?ebitda-guidance       0.97      0.94      0.95       277
               business?earnings?ebitda-guidance-expectations       0.95      1.00      0.97       209
                            business?earnings?interest-income       1.00      0.99      1.00       636
                         business?earnings?operating-earnings       0.96      0.95      0.96      1999
                business?earnings?operating-earnings-guidance       0.88      0.95      0.91       143
                            business?earnings?pretax-earnings       0.99      1.00      0.99      5633
               business?earnings?pretax-earnings-expectations       1.00      1.00      1.00      4725
                   business?earnings?pretax-earnings-guidance       0.93      1.00      0.96      1294
      business?earnings?pretax-earnings-guidance-expectations       0.98      0.78      0.87       384
                             business?equity-actions?buybacks       0.99      0.98      0.98      2144
                                business?equity-actions?capex       1.00      0.99      0.99      1818
                       business?equity-actions?capex-guidance       0.96      0.98      0.97       434
                     business?equity-actions?capital-increase       0.97      0.97      0.97       447
                             business?equity-actions?expenses       0.97      0.97      0.97      2543
                    business?equity-actions?expenses-guidance       0.97      0.93      0.95       614
                          business?equity-actions?fundraising       0.98      0.98      0.98      1104
                        business?equity-actions?going-private       1.00      0.97      0.98        65
              business?equity-actions?initial-public-offering       0.95      0.98      0.97       862
        business?equity-actions?initial-public-offering-price       1.00      0.93      0.96       271
         business?equity-actions?initial-public-offering-unit       0.79      0.35      0.49        31
                           business?equity-actions?investment       0.96      0.92      0.94      2151
                          business?equity-actions?name-change       0.97      0.98      0.98       206
                            business?equity-actions?ownership       0.97      0.97      0.97      6876
                    business?equity-actions?private-placement       0.98      0.97      0.97       457
                      business?equity-actions?public-offering       0.99      0.97      0.98      1286
                       business?equity-actions?reorganization       0.95      0.95      0.95      1040
                  business?equity-actions?reorganization-unit       0.85      0.79      0.82       107
                 business?equity-actions?reverse-stock-splits       0.99      0.89      0.93        79
                         business?equity-actions?rights-issue       1.00      0.98      0.99       308
                              business?equity-actions?savings       1.00      0.98      0.99        88
                     business?equity-actions?savings-guidance       0.97      0.86      0.92        44
              business?equity-actions?shareholder-rights-plan       1.00      0.93      0.96        59
                   business?equity-actions?shelf-registration       0.93      0.96      0.94        69
                             business?equity-actions?spin-off       0.97      0.97      0.97       528
                         business?equity-actions?stock-splits       0.92      0.91      0.92        79
                              business?equity-actions?trading       0.99      0.99      0.99      1607
                                business?exploration?drilling       0.95      0.97      0.96       887
                      business?exploration?resource-discovery       0.97      0.90      0.94       166
                               business?indexes?index-listing       0.94      0.91      0.92       170
              business?industrial-accidents?aircraft-accident       0.86      0.96      0.90        69
              business?industrial-accidents?facility-accident       0.81      0.86      0.84        65
                  business?industrial-accidents?force-majeure       1.00      0.93      0.97        30
      business?industrial-accidents?public-transport-accident       0.88      0.83      0.86        18
                         business?insider-trading?insider-buy       0.99      0.99      0.99      4016
                        business?insider-trading?insider-gift       1.00      1.00      1.00       356
                        business?insider-trading?insider-sell       0.99      0.99      0.99      5008
                   business?insider-trading?insider-surrender       1.00      1.00      1.00      1898
                   business?insider-trading?sell-registration       1.00      1.00      1.00      3683
                    business?investor-relations?board-meeting       0.98      0.93      0.96       119
                  business?investor-relations?conference-call       0.99      0.99      0.99      8767
    business?investor-relations?major-shareholders-disclosure       1.00      1.00      1.00      2051
             business?investor-relations?shareholders-meeting       0.98      0.98      0.98       968
               business?labor-issues?board-member-appointment       0.89      0.89      0.89      1640
               business?labor-issues?board-member-resignation       0.87      0.86      0.86       583
                business?labor-issues?board-member-retirement       0.73      0.66      0.69        85
                  business?labor-issues?executive-appointment       0.96      0.97      0.96      7974
                 business?labor-issues?executive-compensation       0.98      0.99      0.99       170
                        business?labor-issues?executive-death       0.91      0.96      0.93       101
                       business?labor-issues?executive-firing       0.92      0.87      0.89       229
                       business?labor-issues?executive-health       1.00      0.60      0.75        25
                   business?labor-issues?executive-incentives       0.97      0.82      0.89        38
                  business?labor-issues?executive-resignation       0.92      0.94      0.93      3321
                   business?labor-issues?executive-retirement       0.80      0.71      0.75       417
                       business?labor-issues?executive-salary       0.97      0.94      0.95       364
                      business?labor-issues?executive-scandal       0.97      0.71      0.82        51
                       business?labor-issues?executive-search       0.94      0.71      0.81        24
                                business?labor-issues?hirings       0.96      0.85      0.90       668
                                business?labor-issues?layoffs       0.97      0.97      0.97      2137
                             business?labor-issues?union-pact       0.89      0.67      0.76        48
                         business?labor-issues?workers-strike       0.95      0.91      0.93       246
                       business?labor-issues?workforce-salary       0.81      0.72      0.76        47
                               business?marketing?campaign-ad       0.97      0.93      0.95       377
                                business?marketing?conference       0.99      0.96      0.97      1950
                          business?marketing?press-conference       0.93      0.96      0.94        67
                            business?order-imbalances?buy-moc       1.00      1.00      1.00      2166
                            business?order-imbalances?buy-moo       1.00      1.00      1.00       148
                    business?order-imbalances?delay-imbalance       1.00      1.00      1.00        36
                           business?order-imbalances?sell-moc       1.00      1.00      1.00      1823
                           business?order-imbalances?sell-moo       1.00      1.00      1.00       176
                          business?partnerships?joint-venture       0.97      0.90      0.94       848
                            business?partnerships?partnership       0.96      0.96      0.96      6670
                          business?price-targets?price-target       0.99      1.00      0.99      5330
                             business?products-services?award       0.96      0.94      0.95      1419
              business?products-services?business-combination       0.96      0.90      0.93       135
                 business?products-services?business-contract       0.92      0.95      0.94     10803
                   business?products-services?clinical-trials       0.97      0.97      0.97      1557
business?products-services?clinical-trials-patient-enrollment       0.93      0.92      0.93       135
                       business?products-services?competition       0.99      0.95      0.97       109
                            business?products-services?demand       0.90      0.80      0.85       332
                   business?products-services?demand-guidance       0.91      0.83      0.87       102
            business?products-services?fast-track-designation       1.00      0.92      0.96        26
               business?products-services?government-contract       0.87      0.65      0.75       664
                             business?products-services?grant       0.85      0.72      0.78        40
                      business?products-services?market-entry       0.94      0.93      0.94       608
                       business?products-services?market-exit       0.93      0.91      0.92       131
                   business?products-services?market-guidance       0.98      0.89      0.93        56
                      business?products-services?market-share       0.96      0.96      0.96       613
           business?products-services?orphan-drug-designation       1.00      0.97      0.98        63
               business?products-services?product-development       0.96      0.94      0.95      1854
              business?products-services?product-discontinued       0.80      0.80      0.80       402
               business?products-services?product-enhancement       0.94      0.90      0.92      2407
                    business?products-services?product-outage       0.95      0.76      0.84       200
                   business?products-services?product-pricing       0.98      0.94      0.96      1253
                 business?products-services?product-promotion       0.91      0.69      0.78        29
                    business?products-services?product-recall       0.99      0.97      0.98       732
                   business?products-services?product-release       0.95      0.97      0.96     11011
                   business?products-services?product-resumed       0.92      0.92      0.92        84
                    business?products-services?product-review       0.97      0.91      0.94       847
                 business?products-services?project-abandoned       0.73      0.48      0.58        23
    business?products-services?regulatory-product-application       0.89      0.74      0.81        77
       business?products-services?regulatory-product-approval       0.93      0.92      0.93       527
                            business?products-services?supply       0.95      0.94      0.94      1597
                   business?products-services?supply-guidance       0.92      0.89      0.91       532
                      business?regulatory?auditor-appointment       1.00      0.80      0.89        44
                   business?regulatory?exchange-noncompliance       1.00      0.96      0.98        27
                 business?regulatory?regulatory-investigation       0.95      0.84      0.89       529
                   business?regulatory?regulatory-stress-test       1.00      0.77      0.87        35
                           business?revenues?operating-margin       0.99      0.98      0.99       221
                  business?revenues?operating-margin-guidance       0.89      0.89      0.89        36
                                    business?revenues?revenue       0.98      0.99      0.98     37351
                           business?revenues?revenue-estimate       1.00      0.88      0.94       135
                           business?revenues?revenue-guidance       0.96      0.97      0.97      6992
                             business?revenues?revenue-volume       0.91      0.73      0.81      2255
                           business?revenues?same-store-sales       0.91      0.93      0.92      1126
                  business?revenues?same-store-sales-guidance       0.79      0.91      0.85       171
                              business?stock-picks?stock-pick       0.93      0.94      0.93       403
                            business?stock-prices?stock-price       1.00      1.00      1.00     67908
          business?technical-analysis?relative-strength-index       1.00      1.00      1.00       902
            business?technical-analysis?technical-price-level       1.00      1.00      1.00      2162
                   business?technical-analysis?technical-view       1.00      1.00      1.00      7663
                                 society?civil-unrest?protest       0.93      0.86      0.89        43
                    society?corporate-responsibility?donation       0.97      0.96      0.96       278
                 society?corporate-responsibility?sponsorship       0.86      0.76      0.81        25
                                        society?crime?robbery       1.00      0.85      0.92        26
                                       society?crime?shooting       0.93      0.81      0.87        53
                        society?legal?antitrust-investigation       0.71      0.81      0.76        21
                                 society?legal?antitrust-suit       0.80      0.59      0.68        34
                                 society?legal?discrimination       0.88      0.58      0.70        26
                                          society?legal?fraud       0.88      0.77      0.82        64
                                   society?legal?legal-issues       0.95      0.95      0.95      2398
                            society?legal?patent-infringement       0.95      0.92      0.93       155
                                      society?legal?sanctions       0.98      0.88      0.93       792
                                     society?legal?settlement       0.91      0.95      0.93      1015
                                        society?legal?verdict       0.96      0.89      0.92       412
                               society?security?cyber-attacks       0.94      0.99      0.97       188
                                   society?security?explosion       0.93      0.60      0.73        43
                     society?transportation?emergency-landing       1.00      0.97      0.98        31
             society?transportation?transportation-disruption       0.82      0.94      0.88       165
                                 society?war-conflict?bombing       0.95      0.82      0.88        22
                                 society?war-conflict?embargo       0.78      0.74      0.76        34

                                                     accuracy                           0.98    749066
                                                    macro avg       0.95      0.91      0.92    749066
                                                 weighted avg       0.98      0.98      0.98    749066
